<svg xmlns="http://www.w3.org/2000/svg" width="7" height="8" viewBox="0 0 7 8">
    <g id="Многоугольник_4" data-name="Многоугольник 4" transform="translate(7) rotate(90)" fill="none">
        <path d="M4,0,8,7H0Z" stroke="none"/>
        <path d="M 3.999999761581421 2.015560150146484 L 1.723176956176758 6 L 6.276822566986084 6 L 3.999999761581421 2.015560150146484 M 3.999999761581421 0 L 8 7 L -4.76837158203125e-07 7 L 3.999999761581421 0 Z" stroke="none" fill="#707070"/>
    </g>
</svg>
